{
  "Nodes": [
    {
      "Machine": "attacker_machine",
      "User": "superuser",
      "Node_id": 0
    },
    {
      "Machine": "zagreus",
      "User": "alice",
      "Node_id": 1
    },
    {
      "Machine": "zagreus",
      "User": "superuser",
      "Node_id": 2
    },
    {
      "Machine": "hades",
      "User": "bob",
      "Node_id": 3
    },
    {
      "Machine": "hades",
      "User": "superuser",
      "Node_id": 4
    },
    {
      "Machine": "melinoe",
      "User": "postgres",
      "Node_id": 5
    }
  ],
  "Transitions": [
    {
      "Entry": 0,
      "Exit": 1,
      "Technique": "T1190",
      "Procedure": null,
      "Requires": [],
      "Rewards": []
    },
    {
      "Entry": 1,
      "Exit": 2,
      "Technique": "T1068",
      "Procedure": null,
      "Requires": [],
      "Rewards": []
    },
    {
      "Entry": 2,
      "Exit": 2,
      "Technique": "T1552",
      "Procedure": null,
      "Requires": [],
      "Rewards": [
        "zagreus_secret"
      ]
    },
    {
      "Entry": 0,
      "Exit": 3,
      "Technique": "T1190",
      "Procedure": null,
      "Requires": [
        "zagreus_secret"
      ],
      "Rewards": [
        "hades_secret"
      ]
    },
    {
      "Entry": 0,
      "Exit": 4,
      "Technique": "T1021",
      "Procedure": null,
      "Requires": [
        "hades_secret"
      ],
      "Rewards": []
    },
    {
      "Entry": 4,
      "Exit": 4,
      "Technique": "T1552",
      "Procedure": null,
      "Requires": [],
      "Rewards": [
        "melinoe_db_password"
      ]
    },
    {
      "Entry": 4,
      "Exit": 5,
      "Technique": "T1021",
      "Procedure": null,
      "Requires": [
        "melinoe_db_password"
      ],
      "Rewards": [
        "melinoe_flag"
      ]
    }
  ],
  "Starting": [
    {
      "Machine": "internet",
      "User": "superuser",
      "Node_id": 0
    }
  ],
  "Winning": [
    {
      "Machine": "melinoe",
      "User": "postgres",
      "Node_id": 5
    }
  ]
}