[
  {
    "Name": "Exploit Public-Facing Application: Website with command injection (easy)",
    "Difficulty": 1,
    "Secret Preconditions": {
      "Requires": [],
      "Rewards": [
      ]
    },
    "Exit": {
      "OS": [
        {
          "Type": "canonical:ubuntu_linux",
          "Version": "==20.04"
        }
      ],
      "Account": [
        {
          "Name": "EXIT_USER",
          "Group": "*",
          "Privilege": "*",
          "Services": [
            "npm"
          ],
          "Credentials": {
            "Credential Type": "*",
            "Requires Secret": false
          }
        }
      ],
      "Software": [
        {
          "Type": "npm",
          "Version": "*",
          "Port": "3000"
        }
      ],
      "Files": [
        {
          "Path": "~/",
          "Permissions": {
            "User": "EXIT_USER",
            "Group": "EXIT_USER",
            "Perm": "0755"
          },
          "Content": {
            "Content Type": "NPM_WEBSITE_WITH_COMMAND_INJECTION_EASY",
            "Requires Secret": false
          }
        }
      ]
    }
  },
  {
    "Name": "Exploit Public-Facing Application: Website for breizh CTF",
    "Difficulty": 1,
    "Secret Preconditions": {
      "Requires": [],
      "Rewards": [
        {
          "Type": "EMAIL_ADDRESS",
          "Amount": "*"
        }
      ]
    },
    "Exit": {
      "OS": [
        {
          "Type": "debian:debian_linux",
          "Version": "==12.0"
        }
      ],
      "Account": [
        {
          "Name": "EXIT_USER",
          "Group": "*",
          "Privilege": "*",
          "Services": [
            "docker"
          ],
          "Credentials": {
            "Credential Type": "FIXED_NPM_BREIZH_CTF_PASSWORD",
            "Requires Secret": false
          }
        }
      ],
      "Software": [
        {
          "Type": "docker-compose",
          "Version": "*"
        }
      ],
      "Files": [
        {
          "Path": "~/",
          "Permissions": {
            "User": "EXIT_USER",
            "Group": "EXIT_USER",
            "Perm": "0755"
          },
          "Content": {
            "Content Type": "NPM_WEBSITE_BREIZH_CTF",
            "Requires Secret": true,
            "Secret Type": "PLAINTEXT_PASSWORD",
            "Secret Amount": "*"
          }
        }
      ]
    }
  },
  {
    "Name": "Exploit Public-Facing Application: Website with command injection (medium)",
    "Difficulty": 2,
    "Secret Preconditions": {
      "Requires": [],
      "Rewards": []
    },
    "Exit": {
      "OS": [
        {
          "Type": "canonical:ubuntu_linux",
          "Version": "==20.04"
        }
      ],
      "Account": [
        {
          "Name": "EXIT_USER",
          "Group": "*",
          "Privilege": "*",
          "Services": [
            "npm"
          ],
          "Credentials": {
            "Credential Type": "*",
            "Requires Secret": false
          }
        }
      ],
      "Software": [
        {
          "Type": "npm",
          "Version": "*",
          "Port": "3000"
        }
      ],
      "Files": [
        {
          "Path": "~/",
          "Permissions": {
            "User": "EXIT_USER",
            "Group": "EXIT_USER",
            "Perm": "0755"
          },
          "Content": {
            "Content Type": "NPM_WEBSITE_WITH_COMMAND_INJECTION_MEDIUM",
            "Requires Secret": false
          }
        }
      ]
    }
  },
  {
    "Name": "Exploit Public-Facing Application: Django directory traversal rewarding ssh key (ubuntu)",
    "Difficulty": 1,
    "Secret Preconditions": {
      "Requires": [
        {
          "Type": "PLAINTEXT_PASSWORD",
          "Amount": "1"
        }
      ],
      "Rewards": [
        {
          "Type": "SSH_KEYS",
          "Amount": "1"
        }
      ]
    },
    "Exit": {
      "OS": [
        {
          "Type": "canonical:ubuntu_linux",
          "Version": ">=16.04 <=20.04"
        }
      ],
      "Account": [
        {
          "Name": "EXIT_USER",
          "Group": "*",
          "Privilege": "*",
          "Services": [
            "django"
          ],
          "Credentials": {
            "Credential Type": "*",
            "Requires Secret": false
          }
        }
      ],
      "Software": [
        {
          "Type": "python3-pip",
          "Version": "*"
        },
        {
          "Type": "python",
          "Version": "==3.5.0",
          "Port": "8000"
        }
      ],
      "Files": [
        {
          "Path": "~/",
          "Permissions": {
            "User": "EXIT_USER",
            "Group": "EXIT_USER",
            "Perm": "0755"
          },
          "Content": {
            "Content Type": "DJANGO_WEBSITE_WITH_DIRECTORY_TRAVERSAL_REWARDING_SSH_KEY",
            "Requires Secret": false
          }
        },
        {
          "Path": "~/django_website_with_directory_traversal_rewarding_ssh_key/.env",
          "Permissions": {
            "User": "EXIT_USER",
            "Group": "EXIT_USER",
            "Perm": "0755"
          },
          "Content": {
            "Content Type": "DJANGO_USER_CREATE_SUPERUSER",
            "Requires Secret": true,
            "Secret Type": "PLAINTEXT_PASSWORD",
            "Secret Amount": "1"
          }
        },
        {
          "Path": "~/django_website_with_directory_traversal_rewarding_ssh_key/notes/fixtures/ssh_key.json",
          "Permissions": {
            "User": "EXIT_USER",
            "Group": "EXIT_USER",
            "Perm": "0755"
          },
          "Content": {
            "Content Type": "DJANGO_SSH_NOTE_KEY",
            "Requires Secret": true,
            "Secret Type": "SSH_KEYS",
            "Secret Amount": "1"
          }
        }
      ]
    }
  },
  {
    "Name": "Exploit Public-Facing Application: Django directory traversal rewarding ssh key (debian)",
    "Difficulty": 1,
    "Secret Preconditions": {
      "Requires": [
        {
          "Type": "PLAINTEXT_PASSWORD",
          "Amount": "1"
        }
      ],
      "Rewards": [
        {
          "Type": "SSH_KEYS",
          "Amount": "1"
        }
      ]
    },
    "Exit": {
      "OS": [
        {
          "Type": "debian:debian_linux",
          "Version": "==11.0"
        }
      ],
      "Account": [
        {
          "Name": "EXIT_USER",
          "Group": "*",
          "Privilege": "*",
          "Services": [
            "django"
          ],
          "Credentials": {
            "Credential Type": "*",
            "Requires Secret": false
          }
        }
      ],
      "Software": [
        {
          "Type": "python3-pip",
          "Version": "*"
        },
        {
          "Type": "python",
          "Version": "==3.5.0",
          "Port": "8000"
        }
      ],
      "Files": [
        {
          "Path": "~/",
          "Permissions": {
            "User": "EXIT_USER",
            "Group": "EXIT_USER",
            "Perm": "0755"
          },
          "Content": {
            "Content Type": "DJANGO_WEBSITE_WITH_DIRECTORY_TRAVERSAL_REWARDING_SSH_KEY",
            "Requires Secret": false
          }
        },
        {
          "Path": "~/django_website_with_directory_traversal_rewarding_ssh_key/.env",
          "Permissions": {
            "User": "EXIT_USER",
            "Group": "EXIT_USER",
            "Perm": "0755"
          },
          "Content": {
            "Content Type": "DJANGO_USER_CREATE_SUPERUSER",
            "Requires Secret": true,
            "Secret Type": "PLAINTEXT_PASSWORD",
            "Secret Amount": "1"
          }
        },
        {
          "Path": "~/django_website_with_directory_traversal_rewarding_ssh_key/notes/fixtures/ssh_key.json",
          "Permissions": {
            "User": "EXIT_USER",
            "Group": "EXIT_USER",
            "Perm": "0755"
          },
          "Content": {
            "Content Type": "DJANGO_SSH_NOTE_KEY",
            "Requires Secret": true,
            "Secret Type": "SSH_KEYS",
            "Secret Amount": "1"
          }
        }
      ]
    }
  }
]