[
  {
    "Name": "Unsecured Credentials: Passwords in .bash_history",
    "Difficulty": 2,
    "Secret Preconditions": {
      "Requires": [],
      "Rewards": [
        {
          "Type": "PLAINTEXT_PASSWORD",
          "Amount": "*"
        }
      ]
    },
    "Entry": {
      "OS": [
        {
          "Type": "linux",
          "Version": "*"
        }
      ],
      "Account": [
      ],
      "Software": [
      ],
      "Files": [
        {
          "Path": "~/.bash_history",
          "Permissions": {
            "User": "EXIT_USER",
            "Group": "EXIT_USER",
            "Perm": "0600"
          },
          "Content": {
            "Content Type": "BASH_HISTORY_PASSWORD_LEAK",
            "Requires Secret": true,
            "Secret Type": "PLAINTEXT_PASSWORD",
            "Secret Amount": "*"
          }
        }
      ]
    }
  },
  {
    "Name": "Unsecured Credentials: Passwords in txt file",
    "Difficulty": 1,
    "Secret Preconditions": {
      "Requires": [],
      "Rewards": [
        {
          "Type": "PLAINTEXT_PASSWORD",
          "Amount": "*"
        }
      ]
    },
    "Entry": {
      "OS": [
        {
          "Type": "linux",
          "Version": "*"
        }
      ],
      "Account": [
      ],
      "Software": [
      ],
      "Files": [
        {
          "Path": "~/important.txt",
          "Permissions": {
            "User": "EXIT_USER",
            "Group": "EXIT_USER",
            "Perm": "0600"
          },
          "Content": {
            "Content Type": "TXT_FILE_PASSWORD_LEAK",
            "Requires Secret": true,
            "Secret Type": "PLAINTEXT_PASSWORD",
            "Secret Amount": "*"
          }
        }
      ]
    }
  },
  {
    "Name": "Unsecured Credentials: Private Keys in .ssh",
    "Difficulty": 1,
    "Secret Preconditions": {
      "Requires": [],
      "Rewards": [
        {
          "Type": "SSH_KEYS",
          "Amount": "*"
        }
      ]
    },
    "Entry": {
      "OS": [
        {
          "Type": "linux",
          "Version": "*"
        }
      ],
      "Account": [
      ],
      "Software": [
      ],
      "Files": [
        {
          "Path": "~/.ssh/id_rsa_new",
          "Permissions": {
            "User": "EXIT_USER",
            "Group": "EXIT_USER",
            "Perm": "0600"
          },
          "Content": {
            "Content Type": "ADD_SSH_PRIVATE_KEY",
            "Requires Secret": true,
            "Secret Type": "SSH_KEYS",
            "Secret Amount": "*"
          }
        }
      ]
    }
  }
]