[
  {
    "Name": "Gather Victim Identity Information: Credentials physically provided to attackers",
    "Difficulty": 0,
    "Secret Preconditions": {
      "Requires": [],
      "Rewards": [
        {
          "Type": "PLAINTEXT_PASSWORD",
          "Amount": "*"
        }
      ]
    },
    "Exit": {
      "OS": [
      ],
      "Account": [
      ],
      "Software": [
      ],
      "Files": [
      ]
    }
  }
]